Textual Data
…
## [1] 31.00625

The rest is just quibbling over methodology (which is extremely fun to do!)

median(lots.of.data)

## [1] 48.4678

Textual Data

In the same way, if you have a large chunk of text, you do not analyse it by saying 

print(lotta.text)

## # A tibble: 4,447 x 1
##                                                                  text
##                                                                 <chr>
##  1                                                Transcriber's Note:
##  2 Punctuation, Spelling and Geographical errors retained as found in
##  3                                                      the original.
##  4                                                                   
##  5                                                                   
##  6                                                                   
##  7                                                                   
##  8                                                     _DOG STORIES._
##  9                                                                   
## 10                                                                   
## # ... with 4,437 more rows
…
